module example/user/hello

go 1.20

require (
	github.com/improbable-eng/grpc-web v0.15.0
	google.golang.org/grpc v1.57.0
	google.golang.org/protobuf v1.31.0
)

require (
	github.com/cenkalti/backoff/v4 v4.1.1 // indirect
	github.com/desertbit/timer v0.0.0-20180107155436-c41aec40b27f // indirect
	github.com/golang/protobuf v1.5.3 // indirect
	github.com/klauspost/compress v1.11.7 // indirect
	github.com/rs/cors v1.7.0 // indirect
	golang.org/x/net v0.12.0 // indirect
	golang.org/x/sys v0.10.0 // indirect
	golang.org/x/text v0.11.0 // indirect
	google.golang.org/genproto/googleapis/rpc v0.0.0-20230726155614-23370e0ffb3e // indirect
	nhooyr.io/websocket v1.8.6 // indirect
)
